r002
…
Imprimir propiedades

arboles

Simple feature collection with 1455 features and 2 fields
Geometry type: POINT
Dimension:     XY
Bounding box:  xmin: 269156.9 ymin: 6615731 xmax: 269286.5 ymax: 6615991
Projected CRS: WGS 84 / UTM zone 19S
# A tibble: 1,455 × 3
   treeID     Z           geometry
    <int> <dbl>        <POINT [m]>
 1      1  2.17 (269286.5 6615973)
 2      2  2.66 (269283.1 6615974)
 3      3  2.83 (269280.4 6615974)
 4      4  2.83 (269277.7 6615975)
 5      5  2.11 (269285.4 6615969)
 6      6  2.1  (269284.6 6615964)
 7      7  2.15   (269280 6615970)
 8      8  2.17 (269282.8 6615969)
 9      9  1.56 (269276.5 6615970)
10     10  2.2  (269278.7 6615964)
# … with 1,445 more rows
…
Análisis topológico

¿Existen geometrías solapadas en la capa vectorial de propiedades rurales?

propiedad_con_topo <- st_intersection(propiedad)
propiedad_con_topo[,c('ROL','n.overlaps')] %>% st_drop_geometry()

# A tibble: 31 × 2
   ROL                 n.overlaps
 * <chr>                    <int>
 1 740-69                       1
 2 740-69                       2
 3 740-68                       1
 4 740-69                       2
 5 740-100                      1
 6 Cerrillos de Tamaya          1
 7 Cerrillos de Tamaya          2
 8 792-6                        1
 9 740-100                      2
10 740-69                       3
# … with 21 more rows
…
